Name,Mean,MeanLB,MeanUB,Stddev,StddevLB,StddevUB
PerfBench/10000 Orders/write/accumQty/mc,5.1623618161864324e-2,5.069747180855165e-2,5.405624560150442e-2,2.7264587254115305e-3,1.4062056644168267e-3,4.0412662807882685e-3
PerfBench/10000 Orders/write/accumQty/sbe,5.165749692921774e-2,5.117045368935805e-2,5.2581619305148694e-2,1.3700788471207458e-3,7.021349178841167e-4,2.108718335286803e-3
PerfBench/10000 Orders/write/price/mc,5.036670848455489e-2,5.029391966189091e-2,5.049315939059437e-2,1.8857523069545616e-4,1.0836301301923884e-4,2.91241711915921e-4
PerfBench/10000 Orders/write/price/sbe,5.134935111644289e-2,5.124692433279068e-2,5.147965838898663e-2,2.2189884028570055e-4,1.5473384521397417e-4,3.111684906828749e-4
PerfBench/10000 Orders/write/symbol/mc,5.191253220692898e-2,5.161992831198439e-2,5.225151608704293e-2,6.13627343860242e-4,4.872730475818905e-4,7.432102841965438e-4
PerfBench/10000 Orders/write/symbol/sbe,5.2526280959545285e-2,5.216115416350326e-2,5.31719510901029e-2,9.147187111015853e-4,4.5029706584957905e-4,1.4447944426154693e-3
PerfBench/10000 Orders/write/text/mc,5.2034645454644604e-2,5.157983759885975e-2,5.288334518035798e-2,1.131657072008918e-3,5.454303321345779e-4,1.8079094967528163e-3
PerfBench/10000 Orders/write/text/sbe,5.491792618156102e-2,5.2905475640781574e-2,6.187977716480317e-2,6.0444522541115465e-3,1.6334438755853603e-3,1.0713461945224248e-2
PerfBench/10000 Orders/read/accumQty/mc,5.6089606111935225e-2,5.5542730041476224e-2,5.7208447585423795e-2,1.4171329227375751e-3,6.90140501355551e-4,2.230678295734854e-3
PerfBench/10000 Orders/read/accumQty/sbe,5.694796393833554e-2,5.637810117405024e-2,5.813965001201261e-2,1.4685680271188323e-3,6.417345232599338e-4,2.394697263507698e-3
PerfBench/10000 Orders/read/price/mc,5.6250880564096155e-2,5.5752650288899384e-2,5.7952098848978666e-2,1.40185285523683e-3,5.572327645975313e-4,2.336482632184071e-3
PerfBench/10000 Orders/read/price/sbe,5.6540664269781736e-2,5.592878037948847e-2,5.782216829821765e-2,1.4912206592565794e-3,7.443391265329449e-4,2.122889902467078e-3
PerfBench/10000 Orders/read/symbol/mc,5.145540428357742e-2,5.092341499757976e-2,5.237703286866879e-2,1.378623797399016e-3,7.598093298557022e-4,2.1734559848771403e-3
PerfBench/10000 Orders/read/symbol/sbe,7.143688850186279e-2,7.022591115698057e-2,7.21074312932629e-2,1.5548766558763116e-3,1.0011332009489378e-3,2.1683496078188694e-3
PerfBench/10000 Orders/read/text/mc,5.17252007586756e-2,5.127834469631476e-2,5.2820313331972776e-2,1.2379260266971574e-3,5.617340029256206e-4,2.1043381126766127e-3
PerfBench/10000 Orders/read/text/sbe,7.211615640935436e-2,7.174620251520324e-2,7.27020827397784e-2,8.549417580290534e-4,5.054033213459115e-4,1.274236587707686e-3
